<?xml version="1.0" encoding="UTF-8"?>
<session version="1.0">
<refactoring comment="Copy element &apos;Employee.java&apos; to &apos;Pro12-10/src&apos;&#x0A;- Original project: &apos;Lab10_FileIOSerializable&apos;&#x0A;- Destination element: &apos;Pro12-10/src&apos;&#x0A;- Original element: &apos;Employee.java&apos;" description="Copy compilation unit" destination="=Pro12-10/src" element1="/src&lt;{Employee.java" files="0" flags="589830" folders="0" id="org.eclipse.jdt.ui.copy" policy="org.eclipse.jdt.ui.copyResources" stamp="1402031405377" units="1" version="1.0"/>
</session>