<?xml version="1.0" encoding="UTF-8"?>
<session version="1.0">
<refactoring comment="Copy element &apos;WindowDestroyer.java&apos; to &apos;Lab13_Text/src/(default package)&apos;&#x0A;- Original project: &apos;Lab13_BorderLayout&apos;&#x0A;- Destination element: &apos;Lab13_Text/src/(default package)&apos;&#x0A;- Original element: &apos;WindowDestroyer.java&apos;" description="Copy compilation unit" destination="=Lab13_Text/src&lt;" element1="/src&lt;{WindowDestroyer.java" files="0" flags="589830" folders="0" id="org.eclipse.jdt.ui.copy" policy="org.eclipse.jdt.ui.copyResources" stamp="1402636279935" units="1" version="1.0"/>
</session>