<?xml version="1.0" encoding="UTF-8"?>
<session version="1.0">
<refactoring comment="Copy element &apos;BubbleSort.java&apos; to &apos;BubbleSort.java&apos;&#x0A;- Original project: &apos;BubbleSort&apos;&#x0A;- Destination element: &apos;BubbleSort.java&apos;&#x0A;- Original element: &apos;BubbleSort.java&apos;" description="Copy compilation unit" destination="/src&lt;{BubbleSort.java" element1="/src&lt;{BubbleSort.java" files="0" flags="589830" folders="0" id="org.eclipse.jdt.ui.copy" policy="org.eclipse.jdt.ui.copyResources" stamp="1399531373931" units="1" version="1.0"/>
</session>