<?xml version="1.0" encoding="UTF-8"?>
<session version="1.0">
<refactoring comment="Delete resource &apos;AirLineReservationSystem&apos;" deleteContents="false" description="Delete resource &apos;AirLineReservationSystem&apos;" element1="/AirLineReservationSystem" flags="7" id="org.eclipse.ltk.core.refactoring.delete.resources" resources="1" stamp="1401679702951"/>
</session>