<?xml version="1.0" encoding="UTF-8"?>
<session version="1.0">
<refactoring comment="Copy element &apos;Employee.java&apos; to &apos;Employee.java&apos;&#x0A;- Original project: &apos;Lab10_FileIOSerializable&apos;&#x0A;- Destination element: &apos;Employee.java&apos;&#x0A;- Original element: &apos;Employee.java&apos;" description="Copy compilation unit" destination="/src&lt;{Employee.java" element1="/src&lt;{Employee.java" files="0" flags="589830" folders="0" id="org.eclipse.jdt.ui.copy" policy="org.eclipse.jdt.ui.copyResources" stamp="1401423702066" units="1" version="1.0"/>
</session>