<?xml version="1.0" encoding="UTF-8"?>
<session version="1.0">
<refactoring comment="Delete resource &apos;ConvertFahrenheitToCelsius&apos;" deleteContents="false" description="Delete resource &apos;ConvertFahrenheitToCelsius&apos;" element1="/ConvertFahrenheitToCelsius" flags="7" id="org.eclipse.ltk.core.refactoring.delete.resources" resources="1" stamp="1394893060026"/>
</session>